{
	"Z1K1": "Z2",
	"Z2K1": {
		"Z1K1": "Z6",
		"Z6K1": "Z545"
	},
	"Z2K2": {
		"Z1K1": "Z50",
		"Z50K1": [
			"Z3",
			{
				"Z1K1": "Z3",
				"Z3K1": "Z6",
				"Z3K2": "Z545K1",
				"Z3K3": {
					"Z1K1": "Z12",
					"Z12K1": [
						"Z11",
						{
							"Z1K1": "Z11",
							"Z11K1": "Z1002",
							"Z11K2": "type ZID"
						}
					]
				}
			},
			{
				"Z1K1": "Z3",
				"Z3K1": "Z6",
				"Z3K2": "Z545K2",
				"Z3K3": {
					"Z1K1": "Z12",
					"Z12K1": [
						"Z11",
						{
							"Z1K1": "Z11",
							"Z11K1": "Z1002",
							"Z11K2": "type name"
						}
					]
				}
			},
			{
				"Z1K1": "Z3",
				"Z3K1": "Z6",
				"Z3K2": "Z545K3",
				"Z3K3": {
					"Z1K1": "Z12",
					"Z12K1": [
						"Z11",
						{
							"Z1K1": "Z11",
							"Z11K1": "Z1002",
							"Z11K2": "existing type ZID"
						}
					]
				}
			}
		]
	},
	"Z2K3": {
		"Z1K1": "Z12",
		"Z12K1": [
			"Z11",
			{
				"Z1K1": "Z11",
				"Z11K1": "Z1002",
				"Z11K2": "Conflicting type ZIDs"
			}
		]
	}
}
