{
	"Z1K1": "Z2",
	"Z2K1": {
		"Z1K1": "Z6",
		"Z6K1": "Z8120"
	},
	"Z2K2": {
		"Z1K1": "Z20",
		"Z20K1": "Z812",
		"Z20K2": {
			"Z1K1": "Z7",
			"Z7K1": "Z886",
			"Z886K1": {
				"Z1K1": "Z7",
				"Z7K1": "Z812",
				"Z812K1": [
					"Z1",
					"first",
					"second",
					"third"
				]
			}
		},
		"Z20K3": {
			"Z1K1": "Z7",
			"Z7K1": "Z866",
			"Z866K2": "secondthird"
		}
	},
	"Z2K3": {
		"Z1K1": "Z12",
		"Z12K1": [
			"Z11",
			{
				"Z1K1": "Z11",
				"Z11K1": "Z1002",
				"Z11K2": "Test case for List without first element With Strings"
			}
		]
	}
}
